[
  {
    "title": "用户管理",
    "icon": "&#xe613;",
    "spread": false,
    "href": "/static/page/admin/user_manager.html"
  },
  {
    "title": "资讯管理",
    "icon": "&#xe705;",
    "spread": false,
    "href": "/static/page/admin/information_manager.html"
  }
]